ativ4/fetch.vcd
$date
	Sat Nov 16 18:29:15 2024
$end
$version
	Icarus Verilog
$end
$timescale
	1ps
$end
$scope module fetch_tb $end
$var wire 32 ! pc_out [31:0] $end
$var wire 32 " instruction_out [31:0] $end
$var reg 1 # clock $end
$var reg 1 $ mux3_selector $end
$var reg 32 % pc_branch_in [31:0] $end
$var reg 1 & reset $end
$var reg 1 ' stall $end
$scope module IF $end
$var wire 1 # clock $end
$var wire 1 $ mux3_selector $end
$var wire 32 ( pc_branch_in [31:0] $end
$var wire 1 & reset $end
$var wire 1 ' stall $end
$var wire 32 ) s_pc_out [31:0] $end
$var wire 32 * s_pc_in [31:0] $end
$var wire 32 + s_instruction_out [31:0] $end
$var wire 32 , pc_out [31:0] $end
$var wire 32 - instruction_out [31:0] $end
$scope module IF_ID $end
$var wire 1 # clock $end
$var wire 32 . instruction_out [31:0] $end
$var wire 32 / pc_out [31:0] $end
$var wire 1 & reset $end
$var wire 32 0 pc_in [31:0] $end
$var wire 32 1 instruction_in [31:0] $end
$var reg 32 2 instruction [31:0] $end
$var reg 32 3 pc [31:0] $end
$upscope $end
$scope module MEM_INSTRUCION $end
$var wire 32 4 Din [31:0] $end
$var wire 1 # clk $end
$var wire 32 5 out [31:0] $end
$var wire 1 6 re $end
$var wire 1 7 we $end
$var wire 32 8 addr [31:0] $end
$var integer 32 9 i [31:0] $end
$upscope $end
$scope module MUX3 $end
$var wire 32 : D0 [31:0] $end
$var wire 32 ; D1 [31:0] $end
$var wire 1 $ select $end
$var wire 32 < out [31:0] $end
$upscope $end
$scope module PC $end
$var wire 1 # clock $end
$var wire 32 = pc_in [31:0] $end
$var wire 32 > pc_out [31:0] $end
$var wire 1 & reset $end
$var wire 1 ' stall $end
$var reg 32 ? pc [31:0] $end
$upscope $end
$upscope $end
$upscope $end
$enddefinitions $end
#0
$dumpvars
bx ?
bx >
bx =
bx <
b100000 ;
bx :
b100000000 9
bx 8
07
16
bx 5
b0 4
bx 3
bx 2
bx 1
bx 0
bx /
bx .
bx -
bx ,
bx +
bx *
bx )
b100000 (
0'
0&
b100000 %
0$
0#
bx "
bx !
$end
#5
1#
#10
0#
#15
1#
#20
0#
#25
1#
#30
0#
#35
1#
#40
0#
#45
1#
#50
0#
1&
#55
b1 *
b1 <
b1 =
b0 !
b0 ,
b0 /
b0 3
b0 "
b0 -
b0 .
b0 2
b1100000010000110000011 +
b1100000010000110000011 1
b1100000010000110000011 5
b1 :
b0 )
b0 0
b0 8
b0 >
b0 ?
1#
#60
0#
#65
1#
#70
0#
#75
1#
#80
0#
#85
1#
#90
0#
#95
1#
#100
0#
0&
#105
b10 *
b10 <
b10 =
b11100000010001000000011 +
b11100000010001000000011 1
b11100000010001000000011 5
b10 :
b1 )
b1 0
b1 8
b1 >
b1 ?
b1100000010000110000011 "
b1100000010000110000011 -
b1100000010000110000011 .
b1100000010000110000011 2
1#
#110
0#
#115
b11 *
b11 <
b11 =
b1 !
b1 ,
b1 /
b1 3
b11100000010001000000011 "
b11100000010001000000011 -
b11100000010001000000011 .
b11100000010001000000011 2
b100011010001000000011 +
b100011010001000000011 1
b100011010001000000011 5
b11 :
b10 )
b10 0
b10 8
b10 >
b10 ?
1#
#120
0#
#125
b100 *
b100 <
b100 =
b1100100010000010100011 +
b1100100010000010100011 1
b1100100010000010100011 5
b100 :
b11 )
b11 0
b11 8
b11 >
b11 ?
b10 !
b10 ,
b10 /
b10 3
b100011010001000000011 "
b100011010001000000011 -
b100011010001000000011 .
b100011010001000000011 2
1#
#130
0#
#135
b101 *
b101 <
b101 =
b11 !
b11 ,
b11 /
b11 3
b1100100010000010100011 "
b1100100010000010100011 -
b1100100010000010100011 .
b1100100010000010100011 2
b1100100000011110110011 +
b1100100000011110110011 1
b1100100000011110110011 5
b101 :
b100 )
b100 0
b100 8
b100 >
b100 ?
1#
#140
0#
#145
b110 *
b110 <
b110 =
b11100000010001000000011 +
b11100000010001000000011 1
b11100000010001000000011 5
b110 :
b101 )
b101 0
b101 8
b101 >
b101 ?
b100 !
b100 ,
b100 /
b100 3
b1100100000011110110011 "
b1100100000011110110011 -
b1100100000011110110011 .
b1100100000011110110011 2
1#
#150
0#
#155
b111 *
b111 <
b111 =
b101 !
b101 ,
b101 /
b101 3
b11100000010001000000011 "
b11100000010001000000011 -
b11100000010001000000011 .
b11100000010001000000011 2
b1000000111100100000011100110011 +
b1000000111100100000011100110011 1
b1000000111100100000011100110011 5
b111 :
b110 )
b110 0
b110 8
b110 >
b110 ?
1#
#160
0#
#165
b1000 *
b1000 <
b1000 =
b1000000010001111000011100110011 +
b1000000010001111000011100110011 1
b1000000010001111000011100110011 5
b1000 :
b111 )
b111 0
b111 8
b111 >
b111 ?
b110 !
b110 ,
b110 /
b110 3
b1000000111100100000011100110011 "
b1000000111100100000011100110011 -
b1000000111100100000011100110011 .
b1000000111100100000011100110011 2
1#
#170
0#
#175
b1001 *
b1001 <
b1001 =
b111 !
b111 ,
b111 /
b111 3
b1000000010001111000011100110011 "
b1000000010001111000011100110011 -
b1000000010001111000011100110011 .
b1000000010001111000011100110011 2
b10001110111001100110011 +
b10001110111001100110011 1
b10001110111001100110011 5
b1001 :
b1000 )
b1000 0
b1000 8
b1000 >
b1000 ?
1#
#180
0#
#185
b1010 *
b1010 <
b1010 =
b10001110110001110110011 +
b10001110110001110110011 1
b10001110110001110110011 5
b1010 :
b1001 )
b1001 0
b1001 8
b1001 >
b1001 ?
b1000 !
b1000 ,
b1000 /
b1000 3
b10001110111001100110011 "
b10001110111001100110011 -
b10001110111001100110011 .
b10001110111001100110011 2
1#
#190
0#
#195
b1011 *
b1011 <
b1011 =
b1001 !
b1001 ,
b1001 /
b1001 3
b10001110110001110110011 "
b10001110110001110110011 -
b10001110110001110110011 .
b10001110110001110110011 2
b111100110000100001100011 +
b111100110000100001100011 1
b111100110000100001100011 5
b1011 :
b1010 )
b1010 0
b1010 8
b1010 >
b1010 ?
1#
#200
0#
1'
#205
b1010 !
b1010 ,
b1010 /
b1010 3
b111100110000100001100011 "
b111100110000100001100011 -
b111100110000100001100011 .
b111100110000100001100011 2
1#
#210
0#
#215
1#
#220
0#
#225
1#
#230
0#
#235
1#
#240
0#
#245
1#
#250
0#
#255
1#
#260
0#
#265
1#
#270
0#
#275
1#
#280
0#
#285
1#
#290
0#
#295
1#
#300
0#
0'
#305
b1100 *
b1100 <
b1100 =
b10000110000100001100011 +
b10000110000100001100011 1
b10000110000100001100011 5
b1100 :
b1011 )
b1011 0
b1011 8
b1011 >
b1011 ?
1#
#310
0#
#315
b1101 *
b1101 <
b1101 =
b1011 !
b1011 ,
b1011 /
b1011 3
b10000110000100001100011 "
b10000110000100001100011 -
b10000110000100001100011 .
b10000110000100001100011 2
b0 +
b0 1
b0 5
b1101 :
b1100 )
b1100 0
b1100 8
b1100 >
b1100 ?
1#
#320
0#
#325
b1110 *
b1110 <
b1110 =
b1110 :
b1101 )
b1101 0
b1101 8
b1101 >
b1101 ?
b1100 !
b1100 ,
b1100 /
b1100 3
b0 "
b0 -
b0 .
b0 2
1#
#330
0#
#335
b1111 *
b1111 <
b1111 =
b1101 !
b1101 ,
b1101 /
b1101 3
b1111 :
b1110 )
b1110 0
b1110 8
b1110 >
b1110 ?
1#
#340
0#
#345
b10000 *
b10000 <
b10000 =
b10000 :
b1111 )
b1111 0
b1111 8
b1111 >
b1111 ?
b1110 !
b1110 ,
b1110 /
b1110 3
1#
#350
0#
#355
b10001 *
b10001 <
b10001 =
b1111 !
b1111 ,
b1111 /
b1111 3
b10001 :
b10000 )
b10000 0
b10000 8
b10000 >
b10000 ?
1#
#360
0#
#365
b10010 *
b10010 <
b10010 =
b10010 :
b10001 )
b10001 0
b10001 8
b10001 >
b10001 ?
b10000 !
b10000 ,
b10000 /
b10000 3
1#
#370
0#
#375
b10011 *
b10011 <
b10011 =
b10001 !
b10001 ,
b10001 /
b10001 3
b10011 :
b10010 )
b10010 0
b10010 8
b10010 >
b10010 ?
1#
#380
0#
#385
b10100 *
b10100 <
b10100 =
b10100 :
b10011 )
b10011 0
b10011 8
b10011 >
b10011 ?
b10010 !
b10010 ,
b10010 /
b10010 3
1#
#390
0#
#395
b10101 *
b10101 <
b10101 =
b10011 !
b10011 ,
b10011 /
b10011 3
b10101 :
b10100 )
b10100 0
b10100 8
b10100 >
b10100 ?
1#
#400
b100000 *
b100000 <
b100000 =
0#
1$
#405
b100001 :
b100000 )
b100000 0
b100000 8
b100000 >
b100000 ?
b10100 !
b10100 ,
b10100 /
b10100 3
1#
#410
0#
#415
b100000 !
b100000 ,
b100000 /
b100000 3
1#
#420
0#
#425
1#
#430
0#
#435
1#
#440
0#
#445
1#
#450
0#
#455
1#
#460
0#
#465
1#
#470
0#
#475
1#
#480
0#
#485
1#
#490
0#
#495
1#
#500
b100001 *
b100001 <
b100001 =
0#
0$
#505
b100010 *
b100010 <
b100010 =
b100010 :
b100001 )
b100001 0
b100001 8
b100001 >
b100001 ?
1#
#510
0#
#515
b100011 *
b100011 <
b100011 =
b100001 !
b100001 ,
b100001 /
b100001 3
b100011 :
b100010 )
b100010 0
b100010 8
b100010 >
b100010 ?
1#
#520
0#
#525
b100100 *
b100100 <
b100100 =
b100100 :
b100011 )
b100011 0
b100011 8
b100011 >
b100011 ?
b100010 !
b100010 ,
b100010 /
b100010 3
1#
#530
0#
#535
b100101 *
b100101 <
b100101 =
b100011 !
b100011 ,
b100011 /
b100011 3
b100101 :
b100100 )
b100100 0
b100100 8
b100100 >
b100100 ?
1#
#540
0#
#545
b100110 *
b100110 <
b100110 =
b100110 :
b100101 )
b100101 0
b100101 8
b100101 >
b100101 ?
b100100 !
b100100 ,
b100100 /
b100100 3
1#
#550
0#
#555
b100111 *
b100111 <
b100111 =
b100101 !
b100101 ,
b100101 /
b100101 3
b100111 :
b100110 )
b100110 0
b100110 8
b100110 >
b100110 ?
1#
#560
0#
#565
b101000 *
b101000 <
b101000 =
b101000 :
b100111 )
b100111 0
b100111 8
b100111 >
b100111 ?
b100110 !
b100110 ,
b100110 /
b100110 3
1#
#570
0#
#575
b101001 *
b101001 <
b101001 =
b100111 !
b100111 ,
b100111 /
b100111 3
b101001 :
b101000 )
b101000 0
b101000 8
b101000 >
b101000 ?
1#
#580
0#
#585
b101010 *
b101010 <
b101010 =
b101010 :
b101001 )
b101001 0
b101001 8
b101001 >
b101001 ?
b101000 !
b101000 ,
b101000 /
b101000 3
1#
#590
0#
#595
b101011 *
b101011 <
b101011 =
b101001 !
b101001 ,
b101001 /
b101001 3
b101011 :
b101010 )
b101010 0
b101010 8
b101010 >
b101010 ?
1#
