ativ4/instruction_decode_tb.vcd
$date
	Sun Nov 17 15:46:16 2024
$end
$version
	GTKWave Analyzer v3.3.104 (w)1999-2020 BSI
$end
$timescale
	1ps
$end
$scope module instruction_decode_tb $end
$var reg 5 " caso[4:0] $end
$var reg 1 % write_enable $end
$var reg 1 # clock $end
$scope module ID $end
$scope module HAZARD $end
$var wire 5 - rs2[4:0] $end
$var wire 5 , rs1[4:0] $end
$var wire 5 / rd_mem_wb[4:0] $end
$var wire 5 . rd_ex_mem[4:0] $end
$var wire 1 2 pc_load $end
$var wire 1 4 mux5_selector $end
$var wire 1 3 if_id_load $end
$var wire 1 1 branch_instruction_id_ex $end
$var wire 1 0 branch_instruction_controller $end
$upscope $end
$scope module CONTROLLER $end
$var reg 2 + select_mux_4[1:0] $end
$var reg 2 * select_mux_2[1:0] $end
$var reg 2 ) select_mux_1[1:0] $end
$var reg 1 ( reg_file_write $end
$var reg 1 & mem_re $end
$upscope $end
$upscope $end
$var reg 1 $ reset $end
$scope module ID $end
$scope module CONTROLLER $end
$var reg 1 ' mem_we $end
$upscope $end
$upscope $end
$upscope $end
$enddefinitions $end
#0
$dumpvars
bx )
x3
04
b11 -
b0 "
0%
x&
x2
x(
b0 ,
0$
x'
bx *
b11 /
01
0#
b10 .
x0
bx +
$end
#5
b0 +
1&
b1 )
13
12
1(
00
0'
b0 *
1#
#10
0#
0&
1$
b0 )
0(
#15
1#
#20
0#
0$
1%
b1 "
b100 /
b11 .
#25
1#
1(
1&
b1 )
#30
b111 -
0#
b10 "
#35
1#
#40
0#
b11 -
b101 .
0%
b100 ,
b100 "
b110 /
#45
b1 +
1#
0(
0&
1'
#50
0#
14
02
b11 /
03
b101 "
#55
1#
#60
0#
b110 "
b110 /
04
12
13
#65
0'
b0 +
1#
b0 )
b1 *
1(
#70
0#
14
b111 "
03
b11 .
02
#75
1#
#80
0#
b1000 "
b101 .
11
#85
1#
#90
0#
01
13
b1111 -
04
12
b111 /
b110 ,
b1001 "
#95
02
03
1#
0(
b0 *
10
