ativ4/riscv_tb.vcd
$date
	Thu Nov 14 17:28:55 2024
$end
$version
	Icarus Verilog
$end
$timescale
	100ps
$end
$scope module riscv_tb $end
$var reg 1 ! clk $end
$var reg 1 " reset $end
$scope module riscv $end
$var wire 1 ! clk $end
$var wire 1 " reset $end
$var wire 2 # select_mux_4 [1:0] $end
$var wire 2 $ select_mux_3 [1:0] $end
$var wire 2 % select_mux_2 [1:0] $end
$var wire 2 & select_mux_1 [1:0] $end
$var wire 1 ' reg_file_write $end
$var wire 1 ( pc_reset $end
$var wire 1 ) pc_load $end
$var wire 7 * opcode [6:0] $end
$var wire 1 + mem_we $end
$var wire 1 , mem_re $end
$var wire 1 - branch $end
$var wire 2 . alu_op [1:0] $end
$scope module DP $end
$var wire 1 ! clk $end
$var wire 1 " reset $end
$var wire 2 / select_mux_4 [1:0] $end
$var wire 2 0 select_mux_3 [1:0] $end
$var wire 2 1 select_mux_2 [1:0] $end
$var wire 2 2 select_mux_1 [1:0] $end
$var wire 32 3 reg_out_b [31:0] $end
$var wire 32 4 reg_out_a [31:0] $end
$var wire 1 ' reg_file_write $end
$var wire 1 ( pc_reset $end
$var wire 32 5 pc_out [31:0] $end
$var wire 1 ) pc_load $end
$var wire 7 6 opcode [6:0] $end
$var wire 3 7 op [2:0] $end
$var wire 32 8 mux_4_out [31:0] $end
$var wire 32 9 mux_3_out [31:0] $end
$var wire 32 : mux_2_out [31:0] $end
$var wire 32 ; mux_1_out [31:0] $end
$var wire 1 + mem_we $end
$var wire 1 , mem_re $end
$var wire 32 < mem_out [31:0] $end
$var wire 32 = inst_out [31:0] $end
$var wire 32 > immediate_out [31:0] $end
$var wire 7 ? funct7e3 [6:0] $end
$var wire 4 @ flags [3:0] $end
$var wire 1 - branch $end
$var wire 32 A alu_out [31:0] $end
$var wire 2 B alu_op [1:0] $end
$var wire 5 C addr_rd [4:0] $end
$var wire 5 D addr_rb [4:0] $end
$var wire 5 E addr_ra [4:0] $end
$var wire 32 F add_pc_out [31:0] $end
$var wire 32 G add_out [31:0] $end
$scope module ADD $end
$var wire 32 H A [31:0] $end
$var wire 1 I carryOut $end
$var wire 1 J op $end
$var wire 33 K result [32:0] $end
$var wire 32 L R [31:0] $end
$var wire 32 M B [31:0] $end
$upscope $end
$scope module ADD_BRANCH $end
$var wire 1 N carryOut $end
$var wire 1 O op $end
$var wire 33 P result [32:0] $end
$var wire 32 Q R [31:0] $end
$var wire 32 R B [31:0] $end
$var wire 32 S A [31:0] $end
$upscope $end
$scope module ALU_DP $end
$var wire 32 T resultXor [31:0] $end
$var wire 32 U resultOr [31:0] $end
$var wire 32 V resultAnd [31:0] $end
$var wire 32 W resultAddSub [31:0] $end
$var wire 1 X opAddSub $end
$var wire 3 Y op [2:0] $end
$var wire 1 Z lt $end
$var wire 1 [ gt $end
$var wire 4 \ flags [3:0] $end
$var wire 1 ] eq $end
$var wire 32 ^ R [31:0] $end
$var wire 32 _ B [31:0] $end
$var wire 32 ` A [31:0] $end
$scope module AND $end
$var wire 32 a R [31:0] $end
$var wire 32 b B [31:0] $end
$var wire 32 c A [31:0] $end
$upscope $end
$scope module ARITHMETIC $end
$var wire 1 X op $end
$var wire 33 d result [32:0] $end
$var wire 1 e carryOut $end
$var wire 32 f R [31:0] $end
$var wire 32 g B [31:0] $end
$var wire 32 h A [31:0] $end
$upscope $end
$scope module LOGIC $end
$var wire 1 Z lt $end
$var wire 1 [ gt $end
$var wire 1 ] eq $end
$var wire 32 i B [31:0] $end
$var wire 32 j A [31:0] $end
$upscope $end
$scope module OR $end
$var wire 32 k R [31:0] $end
$var wire 32 l B [31:0] $end
$var wire 32 m A [31:0] $end
$upscope $end
$scope module XOR $end
$var wire 32 n R [31:0] $end
$var wire 32 o B [31:0] $end
$var wire 32 p A [31:0] $end
$upscope $end
$upscope $end
$scope module ALU_UC $end
$var wire 1 ! clk $end
$var wire 4 q flags [3:0] $end
$var wire 7 r funct7e3 [6:0] $end
$var wire 1 - branch $end
$var wire 2 s aluOp [1:0] $end
$var parameter 3 t _and $end
$var parameter 3 u _or $end
$var parameter 3 v _xor $end
$var parameter 3 w add $end
$var parameter 3 x sub $end
$var reg 3 y op [2:0] $end
$upscope $end
$scope module IMM $end
$var wire 32 z instruction [31:0] $end
$var wire 32 { immediate [31:0] $end
$upscope $end
$scope module INST $end
$var wire 32 | Din [31:0] $end
$var wire 1 ! clk $end
$var wire 32 } out [31:0] $end
$var wire 1 ~ re $end
$var wire 1 !" we $end
$var wire 32 "" addr [31:0] $end
$var parameter 32 #" size $end
$var reg 8192 $" memory [8191:0] $end
$var integer 32 %" i [31:0] $end
$upscope $end
$scope module MEM $end
$var wire 32 &" addr [31:0] $end
$var wire 1 ! clk $end
$var wire 1 + we $end
$var wire 1 , re $end
$var wire 32 '" out [31:0] $end
$var wire 32 (" Din [31:0] $end
$var parameter 32 )" size $end
$var reg 8192 *" memory [8191:0] $end
$var integer 32 +" i [31:0] $end
$upscope $end
$scope module MUX_1 $end
$var wire 32 ," D1 [31:0] $end
$var wire 32 -" D2 [31:0] $end
$var wire 32 ." D3 [31:0] $end
$var wire 2 /" select [1:0] $end
$var wire 32 0" out [31:0] $end
$var wire 32 1" D0 [31:0] $end
$upscope $end
$scope module MUX_2 $end
$var wire 32 2" D0 [31:0] $end
$var wire 32 3" D1 [31:0] $end
$var wire 32 4" D2 [31:0] $end
$var wire 32 5" D3 [31:0] $end
$var wire 2 6" select [1:0] $end
$var wire 32 7" out [31:0] $end
$upscope $end
$scope module MUX_3 $end
$var wire 32 8" D0 [31:0] $end
$var wire 32 9" D1 [31:0] $end
$var wire 32 :" D2 [31:0] $end
$var wire 32 ;" D3 [31:0] $end
$var wire 2 <" select [1:0] $end
$var wire 32 =" out [31:0] $end
$upscope $end
$scope module MUX_4 $end
$var wire 32 >" D0 [31:0] $end
$var wire 32 ?" D2 [31:0] $end
$var wire 32 @" D3 [31:0] $end
$var wire 2 A" select [1:0] $end
$var wire 32 B" out [31:0] $end
$var wire 32 C" D1 [31:0] $end
$upscope $end
$scope module PC $end
$var wire 1 ! clk $end
$var wire 32 D" in [31:0] $end
$var wire 1 ( reset $end
$var wire 1 ) load $end
$var reg 32 E" out [31:0] $end
$upscope $end
$scope module REG $end
$var wire 32 F" Din [31:0] $end
$var wire 32 G" DoutA [31:0] $end
$var wire 32 H" DoutB [31:0] $end
$var wire 1 ! clk $end
$var wire 5 I" ra [4:0] $end
$var wire 5 J" rb [4:0] $end
$var wire 5 K" rw [4:0] $end
$var wire 1 ' we $end
$var reg 32 L" we_reg [31:0] $end
$var integer 32 M" j [31:0] $end
$scope begin genblk1[1] $end
$var parameter 2 N" i $end
$scope module xI $end
$var wire 1 ! clk $end
$var wire 32 O" in [31:0] $end
$var wire 1 P" load $end
$var wire 1 Q" reset $end
$var reg 32 R" out [31:0] $end
$upscope $end
$upscope $end
$scope begin genblk1[2] $end
$var parameter 3 S" i $end
$scope module xI $end
$var wire 1 ! clk $end
$var wire 32 T" in [31:0] $end
$var wire 1 U" load $end
$var wire 1 V" reset $end
$var reg 32 W" out [31:0] $end
$upscope $end
$upscope $end
$scope begin genblk1[3] $end
$var parameter 3 X" i $end
$scope module xI $end
$var wire 1 ! clk $end
$var wire 32 Y" in [31:0] $end
$var wire 1 Z" load $end
$var wire 1 [" reset $end
$var reg 32 \" out [31:0] $end
$upscope $end
$upscope $end
$scope begin genblk1[4] $end
$var parameter 4 ]" i $end
$scope module xI $end
$var wire 1 ! clk $end
$var wire 32 ^" in [31:0] $end
$var wire 1 _" load $end
$var wire 1 `" reset $end
$var reg 32 a" out [31:0] $end
$upscope $end
$upscope $end
$scope begin genblk1[5] $end
$var parameter 4 b" i $end
$scope module xI $end
$var wire 1 ! clk $end
$var wire 32 c" in [31:0] $end
$var wire 1 d" load $end
$var wire 1 e" reset $end
$var reg 32 f" out [31:0] $end
$upscope $end
$upscope $end
$scope begin genblk1[6] $end
$var parameter 4 g" i $end
$scope module xI $end
$var wire 1 ! clk $end
$var wire 32 h" in [31:0] $end
$var wire 1 i" load $end
$var wire 1 j" reset $end
$var reg 32 k" out [31:0] $end
$upscope $end
$upscope $end
$scope begin genblk1[7] $end
$var parameter 4 l" i $end
$scope module xI $end
$var wire 1 ! clk $end
$var wire 32 m" in [31:0] $end
$var wire 1 n" load $end
$var wire 1 o" reset $end
$var reg 32 p" out [31:0] $end
$upscope $end
$upscope $end
$scope begin genblk1[8] $end
$var parameter 5 q" i $end
$scope module xI $end
$var wire 1 ! clk $end
$var wire 32 r" in [31:0] $end
$var wire 1 s" load $end
$var wire 1 t" reset $end
$var reg 32 u" out [31:0] $end
$upscope $end
$upscope $end
$scope begin genblk1[9] $end
$var parameter 5 v" i $end
$scope module xI $end
$var wire 1 ! clk $end
$var wire 32 w" in [31:0] $end
$var wire 1 x" load $end
$var wire 1 y" reset $end
$var reg 32 z" out [31:0] $end
$upscope $end
$upscope $end
$scope begin genblk1[10] $end
$var parameter 5 {" i $end
$scope module xI $end
$var wire 1 ! clk $end
$var wire 32 |" in [31:0] $end
$var wire 1 }" load $end
$var wire 1 ~" reset $end
$var reg 32 !# out [31:0] $end
$upscope $end
$upscope $end
$scope begin genblk1[11] $end
$var parameter 5 "# i $end
$scope module xI $end
$var wire 1 ! clk $end
$var wire 32 ## in [31:0] $end
$var wire 1 $# load $end
$var wire 1 %# reset $end
$var reg 32 &# out [31:0] $end
$upscope $end
$upscope $end
$scope begin genblk1[12] $end
$var parameter 5 '# i $end
$scope module xI $end
$var wire 1 ! clk $end
$var wire 32 (# in [31:0] $end
$var wire 1 )# load $end
$var wire 1 *# reset $end
$var reg 32 +# out [31:0] $end
$upscope $end
$upscope $end
$scope begin genblk1[13] $end
$var parameter 5 ,# i $end
$scope module xI $end
$var wire 1 ! clk $end
$var wire 32 -# in [31:0] $end
$var wire 1 .# load $end
$var wire 1 /# reset $end
$var reg 32 0# out [31:0] $end
$upscope $end
$upscope $end
$scope begin genblk1[14] $end
$var parameter 5 1# i $end
$scope module xI $end
$var wire 1 ! clk $end
$var wire 32 2# in [31:0] $end
$var wire 1 3# load $end
$var wire 1 4# reset $end
$var reg 32 5# out [31:0] $end
$upscope $end
$upscope $end
$scope begin genblk1[15] $end
$var parameter 5 6# i $end
$scope module xI $end
$var wire 1 ! clk $end
$var wire 32 7# in [31:0] $end
$var wire 1 8# load $end
$var wire 1 9# reset $end
$var reg 32 :# out [31:0] $end
$upscope $end
$upscope $end
$scope begin genblk1[16] $end
$var parameter 6 ;# i $end
$scope module xI $end
$var wire 1 ! clk $end
$var wire 32 <# in [31:0] $end
$var wire 1 =# load $end
$var wire 1 ># reset $end
$var reg 32 ?# out [31:0] $end
$upscope $end
$upscope $end
$scope begin genblk1[17] $end
$var parameter 6 @# i $end
$scope module xI $end
$var wire 1 ! clk $end
$var wire 32 A# in [31:0] $end
$var wire 1 B# load $end
$var wire 1 C# reset $end
$var reg 32 D# out [31:0] $end
$upscope $end
$upscope $end
$scope begin genblk1[18] $end
$var parameter 6 E# i $end
$scope module xI $end
$var wire 1 ! clk $end
$var wire 32 F# in [31:0] $end
$var wire 1 G# load $end
$var wire 1 H# reset $end
$var reg 32 I# out [31:0] $end
$upscope $end
$upscope $end
$scope begin genblk1[19] $end
$var parameter 6 J# i $end
$scope module xI $end
$var wire 1 ! clk $end
$var wire 32 K# in [31:0] $end
$var wire 1 L# load $end
$var wire 1 M# reset $end
$var reg 32 N# out [31:0] $end
$upscope $end
$upscope $end
$scope begin genblk1[20] $end
$var parameter 6 O# i $end
$scope module xI $end
$var wire 1 ! clk $end
$var wire 32 P# in [31:0] $end
$var wire 1 Q# load $end
$var wire 1 R# reset $end
$var reg 32 S# out [31:0] $end
$upscope $end
$upscope $end
$scope begin genblk1[21] $end
$var parameter 6 T# i $end
$scope module xI $end
$var wire 1 ! clk $end
$var wire 32 U# in [31:0] $end
$var wire 1 V# load $end
$var wire 1 W# reset $end
$var reg 32 X# out [31:0] $end
$upscope $end
$upscope $end
$scope begin genblk1[22] $end
$var parameter 6 Y# i $end
$scope module xI $end
$var wire 1 ! clk $end
$var wire 32 Z# in [31:0] $end
$var wire 1 [# load $end
$var wire 1 \# reset $end
$var reg 32 ]# out [31:0] $end
$upscope $end
$upscope $end
$scope begin genblk1[23] $end
$var parameter 6 ^# i $end
$scope module xI $end
$var wire 1 ! clk $end
$var wire 32 _# in [31:0] $end
$var wire 1 `# load $end
$var wire 1 a# reset $end
$var reg 32 b# out [31:0] $end
$upscope $end
$upscope $end
$scope begin genblk1[24] $end
$var parameter 6 c# i $end
$scope module xI $end
$var wire 1 ! clk $end
$var wire 32 d# in [31:0] $end
$var wire 1 e# load $end
$var wire 1 f# reset $end
$var reg 32 g# out [31:0] $end
$upscope $end
$upscope $end
$scope begin genblk1[25] $end
$var parameter 6 h# i $end
$scope module xI $end
$var wire 1 ! clk $end
$var wire 32 i# in [31:0] $end
$var wire 1 j# load $end
$var wire 1 k# reset $end
$var reg 32 l# out [31:0] $end
$upscope $end
$upscope $end
$scope begin genblk1[26] $end
$var parameter 6 m# i $end
$scope module xI $end
$var wire 1 ! clk $end
$var wire 32 n# in [31:0] $end
$var wire 1 o# load $end
$var wire 1 p# reset $end
$var reg 32 q# out [31:0] $end
$upscope $end
$upscope $end
$scope begin genblk1[27] $end
$var parameter 6 r# i $end
$scope module xI $end
$var wire 1 ! clk $end
$var wire 32 s# in [31:0] $end
$var wire 1 t# load $end
$var wire 1 u# reset $end
$var reg 32 v# out [31:0] $end
$upscope $end
$upscope $end
$scope begin genblk1[28] $end
$var parameter 6 w# i $end
$scope module xI $end
$var wire 1 ! clk $end
$var wire 32 x# in [31:0] $end
$var wire 1 y# load $end
$var wire 1 z# reset $end
$var reg 32 {# out [31:0] $end
$upscope $end
$upscope $end
$scope begin genblk1[29] $end
$var parameter 6 |# i $end
$scope module xI $end
$var wire 1 ! clk $end
$var wire 32 }# in [31:0] $end
$var wire 1 ~# load $end
$var wire 1 !$ reset $end
$var reg 32 "$ out [31:0] $end
$upscope $end
$upscope $end
$scope begin genblk1[30] $end
$var parameter 6 #$ i $end
$scope module xI $end
$var wire 1 ! clk $end
$var wire 32 $$ in [31:0] $end
$var wire 1 %$ load $end
$var wire 1 &$ reset $end
$var reg 32 '$ out [31:0] $end
$upscope $end
$upscope $end
$scope begin genblk1[31] $end
$var parameter 6 ($ i $end
$scope module xI $end
$var wire 1 ! clk $end
$var wire 32 )$ in [31:0] $end
$var wire 1 *$ load $end
$var wire 1 +$ reset $end
$var reg 32 ,$ out [31:0] $end
$upscope $end
$upscope $end
$scope module x0 $end
$var wire 1 ! clk $end
$var wire 32 -$ in [31:0] $end
$var wire 1 .$ load $end
$var wire 1 /$ reset $end
$var reg 32 0$ out [31:0] $end
$upscope $end
$upscope $end
$upscope $end
$scope module UC $end
$var wire 1 - branch $end
$var wire 1 ! clk $end
$var wire 7 1$ opcode [6:0] $end
$var wire 1 " reset $end
$var parameter 5 2$ DONE $end
$var parameter 5 3$ EX $end
$var parameter 5 4$ ID $end
$var parameter 5 5$ IDLE $end
$var parameter 5 6$ IF $end
$var parameter 5 7$ MEM $end
$var parameter 5 8$ WB $end
$var reg 2 9$ alu_op [1:0] $end
$var reg 5 :$ currentState [4:0] $end
$var reg 1 , mem_re $end
$var reg 1 + mem_we $end
$var reg 5 ;$ nextState [4:0] $end
$var reg 1 ) pc_load $end
$var reg 1 ( pc_reset $end
$var reg 1 ' reg_file_write $end
$var reg 2 <$ select_mux_1 [1:0] $end
$var reg 2 =$ select_mux_2 [1:0] $end
$var reg 2 >$ select_mux_3 [1:0] $end
$var reg 2 ?$ select_mux_4 [1:0] $end
$upscope $end
$upscope $end
$upscope $end
$enddefinitions $end
$comment Show the parameter values. $end
$dumpall
b101 8$
b100 7$
b1 6$
b0 5$
b10 4$
b11 3$
b110 2$
b11111 ($
b11110 #$
b11101 |#
b11100 w#
b11011 r#
b11010 m#
b11001 h#
b11000 c#
b10111 ^#
b10110 Y#
b10101 T#
b10100 O#
b10011 J#
b10010 E#
b10001 @#
b10000 ;#
b1111 6#
b1110 1#
b1101 ,#
b1100 '#
b1011 "#
b1010 {"
b1001 v"
b1000 q"
b111 l"
b110 g"
b101 b"
b100 ]"
b11 X"
b10 S"
b1 N"
b100000000 )"
b100000000 #"
b1 x
b0 w
b100 v
b11 u
b10 t
$end
#0
$dumpvars
b0 ?$
b0 >$
b0 =$
b0 <$
b1 ;$
b0 :$
b0 9$
bx 1$
bx 0$
0/$
1.$
b0 -$
bx ,$
0+$
0*$
bx )$
bx '$
0&$
0%$
bx $$
bx "$
0!$
0~#
bx }#
bx {#
0z#
0y#
bx x#
bx v#
0u#
0t#
bx s#
bx q#
0p#
0o#
bx n#
bx l#
0k#
0j#
bx i#
bx g#
0f#
0e#
bx d#
bx b#
0a#
0`#
bx _#
bx ]#
0\#
0[#
bx Z#
bx X#
0W#
0V#
bx U#
bx S#
0R#
0Q#
bx P#
bx N#
0M#
0L#
bx K#
bx I#
0H#
0G#
bx F#
bx D#
0C#
0B#
bx A#
bx ?#
0>#
0=#
bx <#
bx :#
09#
08#
bx 7#
bx 5#
04#
03#
bx 2#
bx 0#
0/#
0.#
bx -#
bx +#
0*#
0)#
bx (#
bx &#
0%#
0$#
bx ##
bx !#
0~"
0}"
bx |"
bx z"
0y"
0x"
bx w"
bx u"
0t"
0s"
bx r"
bx p"
0o"
0n"
bx m"
bx k"
0j"
0i"
bx h"
bx f"
0e"
0d"
bx c"
bx a"
0`"
0_"
bx ^"
bx \"
0["
0Z"
bx Y"
bx W"
0V"
0U"
bx T"
bx R"
0Q"
0P"
bx O"
b100000 M"
b0 L"
bx K"
bx J"
bx I"
bx H"
bx G"
bx F"
bx E"
bx D"
bx C"
bx B"
b0 A"
bz @"
bz ?"
bx >"
bx ="
b0 <"
bz ;"
bz :"
bx 9"
bx 8"
bx 7"
b0 6"
bz 5"
bz 4"
bx 3"
bx 2"
bx 1"
bx 0"
b0 /"
bz ."
bz -"
bx ,"
b100000000 +"
b1100011000000000000000000000000000000000000000000000000000000000000000000000000000000000000000000000000000000000000000000000000000000000000000000000000000000000000000000000000000000000000000000000000000000000000000000000000000000000000000000000000000000000000000000000000000000000000000000000000000000000000000000000000000000000000000000000000000000000000010100000000000000000000000000000000000000000000000000000000000000000000000000000000000000000000000000000000000000000000000000010001000000000000000000000000000000000000000000000000000000000000000000000000000000000000000000000000 *"
bx ("
bx '"
bx &"
b100000000 %"
b100001100001000011000110000000011110011000010000110001100000000010001110110001110110011000000000100011101110011001100110100000001000111100001110011001101000000111100100000011100110011000000000111000000100010000000110000000000110010000001111011001100000000001100100010000010100011000000000001000110100010000000110000000001110000001000100000001100000000001100000010000110000011 $"
bx ""
z!"
1~
bx }
bz |
bx {
bx z
b0 y
b0 s
bx r
bx q
bx p
bx o
bx n
bx m
bx l
bx k
bx j
bx i
bx h
bx g
bx f
0e
bx d
bx c
bx b
bx a
bx `
bx _
bx ^
x]
bx \
x[
xZ
b0 Y
0X
bx W
bx V
bx U
bx T
bx S
bx R
bx Q
bx P
0O
0N
bx M
bx L
bx K
0J
0I
b1 H
bx G
bx F
bx E
bx D
bx C
b0 B
bx A
bx @
bx ?
bx >
bx =
bx <
bx ;
bx :
bx 9
bx 8
b0 7
bx 6
bx 5
bx 4
bx 3
b0 2
b0 1
b0 0
b0 /
b0 .
x-
0,
0+
bx *
0)
1(
0'
b0 &
b0 %
b0 $
b0 #
1"
0!
$end
#500
b11 F
b11 Q
b11 9"
b11 P
0-
b1 9
b1 ="
b1 D"
b11 >
b11 S
b11 {
b11 ,"
b100000 M"
b0 V
b0 a
b1 G
b1 L
b1 8"
b11 *
b11 6
b11 1$
b10 ?
b10 r
b11 C
b11 K"
b11 D
b11 J"
b0 4
b0 `
b0 c
b0 h
b0 j
b0 m
b0 p
b0 G"
b0 E
b0 I"
b1 K
b1100000010000110000011 =
b1100000010000110000011 z
b1100000010000110000011 }
b0 5
b0 M
b0 R
b0 ""
b0 E"
b0 0$
1!
#1000
0"
0!
#1500
0(
b10 ;$
b1 :$
1!
#2000
0!
#2500
b11 ;$
b10 :$
1!
#3000
0!
#3500
b11 8
b11 ("
b11 B"
b11 A
b11 ^
b11 &"
b11 3"
b11 >"
b11 W
b11 f
b11 T
b11 n
b11 U
b11 k
b11 d
0[
1Z
b101 @
b101 \
b101 q
0]
b11 ;
b11 _
b11 b
b11 g
b11 i
b11 l
b11 o
b11 0"
b1 .
b1 B
b1 s
b1 9$
b1 &
b1 2
b1 /"
b1 <$
b100 ;$
b11 :$
1!
#4000
0!
#4500
b10001 :
b10001 7"
b10001 F"
b10001 O"
b10001 T"
b10001 Y"
b10001 ^"
b10001 c"
b10001 h"
b10001 m"
b10001 r"
b10001 w"
b10001 |"
b10001 ##
b10001 (#
b10001 -#
b10001 2#
b10001 7#
b10001 <#
b10001 A#
b10001 F#
b10001 K#
b10001 P#
b10001 U#
b10001 Z#
b10001 _#
b10001 d#
b10001 i#
b10001 n#
b10001 s#
b10001 x#
b10001 }#
b10001 $$
b10001 )$
b10001 <
b10001 '"
b10001 2"
1,
b101 ;$
b100 :$
1!
#5000
0!
#5500
1Z"
b1000 L"
b100000 M"
1'
1)
b1 ;$
b101 :$
1!
#6000
0!
#6500
x[
xZ
bx @
bx \
bx q
x]
b0 &
b0 2
b0 /"
b0 <$
b0 .
b0 B
b0 s
b0 9$
0'
0,
0)
b10 ;$
0_"
0Z"
b0 L"
b1 :$
b101 :
b101 7"
b101 F"
b101 O"
b101 T"
b101 Y"
b101 ^"
b101 c"
b101 h"
b101 m"
b101 r"
b101 w"
b101 |"
b101 ##
b101 (#
b101 -#
b101 2#
b101 7#
b101 <#
b101 A#
b101 F#
b101 K#
b101 P#
b101 U#
b101 Z#
b101 _#
b101 d#
b101 i#
b101 n#
b101 s#
b101 x#
b101 }#
b101 $$
b101 )$
b101 <
b101 '"
b101 2"
bx 8
bx ("
bx B"
bx A
bx ^
bx &"
bx 3"
bx >"
bx W
bx f
bx T
bx n
bx U
bx k
bx d
bx ;
bx _
bx b
bx g
bx i
bx l
bx o
bx 0"
b10 9
b10 ="
b10 D"
b111 >
b111 S
b111 {
b111 ,"
b100000 M"
b1000 F
b1000 Q
b1000 9"
b10 G
b10 L
b10 8"
b100 C
b100 K"
b111 D
b111 J"
b1000 P
b10 K
b11100000010001000000011 =
b11100000010001000000011 z
b11100000010001000000011 }
b1 5
b1 M
b1 R
b1 ""
b1 E"
b10001 \"
bx 3
bx 1"
bx C"
bx H"
1!
#7000
0!
#7500
b11 ;$
b10 :$
1!
#8000
0!
#8500
b111 8
b111 ("
b111 B"
b111 A
b111 ^
b111 &"
b111 3"
b111 >"
b111 W
b111 f
b111 T
b111 n
b111 U
b111 k
b111 d
0[
1Z
b101 @
b101 \
b101 q
0]
b111 ;
b111 _
b111 b
b111 g
b111 i
b111 l
b111 o
b111 0"
b1 .
b1 B
b1 s
b1 9$
b1 &
b1 2
b1 /"
b1 <$
b100 ;$
b11 :$
1!
#9000
0!
#9500
1,
b101 ;$
b100 :$
1!
#10000
0!
#10500
1_"
b10000 L"
b100000 M"
1'
1)
b1 ;$
b101 :$
1!
#11000
0!
#11500
0_"
b0 L"
x]
b100000 M"
b0 &
b0 2
b0 /"
b0 <$
b0 .
b0 B
b0 s
b0 9$
0'
0,
0)
b10 ;$
b1 :$
b1100011 :
b1100011 7"
b1100011 F"
b1100011 O"
b1100011 T"
b1100011 Y"
b1100011 ^"
b1100011 c"
b1100011 h"
b1100011 m"
b1100011 r"
b1100011 w"
b1100011 |"
b1100011 ##
b1100011 (#
b1100011 -#
b1100011 2#
b1100011 7#
b1100011 <#
b1100011 A#
b1100011 F#
b1100011 K#
b1100011 P#
b1100011 U#
b1100011 Z#
b1100011 _#
b1100011 d#
b1100011 i#
b1100011 n#
b1100011 s#
b1100011 x#
b1100011 }#
b1100011 $$
b1100011 )$
b1100011 <
b1100011 '"
b1100011 2"
bx 8
bx ("
bx B"
bx ;
bx _
bx b
bx g
bx i
bx l
bx o
bx 0"
bx A
bx ^
bx &"
bx 3"
bx >"
bx W
bx f
b11 9
b11 ="
b11 D"
b1 >
b1 S
b1 {
b1 ,"
bx T
bx n
bx1xxx1 U
bx1xxx1 k
bx d
b0x000x V
b0x000x a
b11 F
b11 Q
b11 9"
b11 G
b11 L
b11 8"
b1 D
b1 J"
x[
bx @
bx \
bx q
xZ
b10001 4
b10001 `
b10001 c
b10001 h
b10001 j
b10001 m
b10001 p
b10001 G"
b11 E
b11 I"
b11 P
b11 K
b101 a"
b100011010001000000011 =
b100011010001000000011 z
b100011010001000000011 }
b10 5
b10 M
b10 R
b10 ""
b10 E"
1!
#12000
0!
#12500
b11 ;$
b10 :$
1!
#13000
0!
#13500
b10010 8
b10010 ("
b10010 B"
b10010 A
b10010 ^
b10010 &"
b10010 3"
b10010 >"
b10010 W
b10010 f
b10000 T
b10000 n
b10001 U
b10001 k
b10010 d
b1 V
b1 a
1[
0Z
b1001 @
b1001 \
b1001 q
0]
b1 ;
b1 _
b1 b
b1 g
b1 i
b1 l
b1 o
b1 0"
b1 .
b1 B
b1 s
b1 9$
b1 &
b1 2
b1 /"
b1 <$
b100 ;$
b11 :$
1!
#14000
0!
#14500
1,
b101 ;$
b100 :$
1!
#15000
0!
#15500
1_"
b10000 L"
b100000 M"
1'
1)
b1 ;$
b101 :$
1!
#16000
0!
#16500
b0 &
b0 2
b0 /"
b0 <$
b0 .
b0 B
b0 s
b0 9$
0,
0)
b10 ;$
0P"
0_"
0'
b0 L"
b1 :$
b0 :
b0 7"
b0 F"
b0 O"
b0 T"
b0 Y"
b0 ^"
b0 c"
b0 h"
b0 m"
b0 r"
b0 w"
b0 |"
b0 ##
b0 (#
b0 -#
b0 2#
b0 7#
b0 <#
b0 A#
b0 F#
b0 K#
b0 P#
b0 U#
b0 Z#
b0 _#
b0 d#
b0 i#
b0 n#
b0 s#
b0 x#
b0 }#
b0 $$
b0 )$
b1 V
b1 a
b0 <
b0 '"
b0 2"
b1110100 8
b1110100 ("
b1110100 B"
b10001 ;
b10001 _
b10001 b
b10001 g
b10001 i
b10001 l
b10001 o
b10001 0"
b1110100 A
b1110100 ^
b1110100 &"
b1110100 3"
b1110100 >"
b1110100 W
b1110100 f
b100 9
b100 ="
b100 D"
b1 >
b1 S
b1 {
b1 ,"
b100000 M"
b1110010 T
b1110010 n
b1110011 U
b1110011 k
b1110100 d
b100 F
b100 Q
b100 9"
b100 G
b100 L
b100 8"
b100011 *
b100011 6
b100011 1$
b1 C
b1 K"
b10001 3
b10001 1"
b10001 C"
b10001 H"
b11 D
b11 J"
b1100011 4
b1100011 `
b1100011 c
b1100011 h
b1100011 j
b1100011 m
b1100011 p
b1100011 G"
b100 E
b100 I"
b100 P
b100 K
b1100100010000010100011 =
b1100100010000010100011 z
b1100100010000010100011 }
b11 5
b11 M
b11 R
b11 ""
b11 E"
b1100011 a"
1!
#17000
0!
#17500
b11 ;$
b10 :$
1!
#18000
0!
#18500
b1100100 A
b1100100 ^
b1100100 &"
b1100100 3"
b1100100 >"
b1100100 W
b1100100 f
b1100010 T
b1100010 n
b1100011 U
b1100011 k
b1100100 d
b1 V
b1 a
b10001 8
b10001 ("
b10001 B"
1[
0Z
b1001 @
b1001 \
b1001 q
0]
b1 ;
b1 _
b1 b
b1 g
b1 i
b1 l
b1 o
b1 0"
b1 #
b1 /
b1 A"
b1 ?$
b1 &
b1 2
b1 /"
b1 <$
b100 ;$
b11 :$
1!
#19000
0!
#19500
1+
b101 ;$
b100 :$
1!
#20000
0!
