ativ4/riscv_tb.vcd
$date
	Thu Nov 14 15:12:41 2024
$end
$version
	Icarus Verilog
$end
$timescale
	100ps
$end
$scope module riscv_tb $end
$var reg 1 ! clk $end
$var reg 1 " reset $end
$scope module riscv $end
$var wire 1 ! clk $end
$var wire 1 " reset $end
$var wire 2 # select_mux_4 [1:0] $end
$var wire 2 $ select_mux_3 [1:0] $end
$var wire 2 % select_mux_2 [1:0] $end
$var wire 2 & select_mux_1 [1:0] $end
$var wire 1 ' reg_file_write $end
$var wire 1 ( pc_reset $end
$var wire 1 ) pc_load $end
$var wire 7 * opcode [6:0] $end
$var wire 1 + mem_we $end
$var wire 1 , mem_re $end
$var wire 1 - branch $end
$var wire 2 . alu_op [1:0] $end
$scope module DP $end
$var wire 1 ! clk $end
$var wire 1 " reset $end
$var wire 2 / select_mux_4 [1:0] $end
$var wire 2 0 select_mux_3 [1:0] $end
$var wire 2 1 select_mux_2 [1:0] $end
$var wire 2 2 select_mux_1 [1:0] $end
$var wire 32 3 reg_out_b [31:0] $end
$var wire 32 4 reg_out_a [31:0] $end
$var wire 1 ' reg_file_write $end
$var wire 1 ( pc_reset $end
$var wire 32 5 pc_out [31:0] $end
$var wire 1 ) pc_load $end
$var wire 7 6 opcode [6:0] $end
$var wire 3 7 op [2:0] $end
$var wire 32 8 mux_4_out [31:0] $end
$var wire 32 9 mux_3_out [31:0] $end
$var wire 32 : mux_2_out [31:0] $end
$var wire 32 ; mux_1_out [31:0] $end
$var wire 1 + mem_we $end
$var wire 1 , mem_re $end
$var wire 32 < mem_out [31:0] $end
$var wire 32 = inst_out [31:0] $end
$var wire 32 > immediate_out [31:0] $end
$var wire 7 ? funct7e3 [6:0] $end
$var wire 4 @ flags [3:0] $end
$var wire 1 - branch $end
$var wire 32 A alu_out [31:0] $end
$var wire 2 B alu_op [1:0] $end
$var wire 5 C addr_rd [4:0] $end
$var wire 5 D addr_rb [4:0] $end
$var wire 5 E addr_ra [4:0] $end
$var wire 32 F add_pc_out [31:0] $end
$var wire 32 G add_out [31:0] $end
$scope module ADD $end
$var wire 32 H A [31:0] $end
$var wire 1 I carryOut $end
$var wire 1 J op $end
$var wire 33 K result [32:0] $end
$var wire 32 L R [31:0] $end
$var wire 32 M B [31:0] $end
$upscope $end
$scope module ADD_BRANCH $end
$var wire 1 N carryOut $end
$var wire 1 O op $end
$var wire 33 P result [32:0] $end
$var wire 32 Q R [31:0] $end
$var wire 32 R B [31:0] $end
$var wire 32 S A [31:0] $end
$upscope $end
$scope module ALU_DP $end
$var wire 32 T resultXor [31:0] $end
$var wire 32 U resultOr [31:0] $end
$var wire 32 V resultAnd [31:0] $end
$var wire 32 W resultAddSub [31:0] $end
$var wire 1 X opAddSub $end
$var wire 3 Y op [2:0] $end
$var wire 1 Z lt $end
$var wire 1 [ gt $end
$var wire 4 \ flags [3:0] $end
$var wire 1 ] eq $end
$var wire 32 ^ R [31:0] $end
$var wire 32 _ B [31:0] $end
$var wire 32 ` A [31:0] $end
$scope module AND $end
$var wire 32 a R [31:0] $end
$var wire 32 b B [31:0] $end
$var wire 32 c A [31:0] $end
$upscope $end
$scope module ARITHMETIC $end
$var wire 1 X op $end
$var wire 33 d result [32:0] $end
$var wire 1 e carryOut $end
$var wire 32 f R [31:0] $end
$var wire 32 g B [31:0] $end
$var wire 32 h A [31:0] $end
$upscope $end
$scope module LOGIC $end
$var wire 1 Z lt $end
$var wire 1 [ gt $end
$var wire 1 ] eq $end
$var wire 32 i B [31:0] $end
$var wire 32 j A [31:0] $end
$upscope $end
$scope module OR $end
$var wire 32 k R [31:0] $end
$var wire 32 l B [31:0] $end
$var wire 32 m A [31:0] $end
$upscope $end
$scope module XOR $end
$var wire 32 n R [31:0] $end
$var wire 32 o B [31:0] $end
$var wire 32 p A [31:0] $end
$upscope $end
$upscope $end
$scope module ALU_UC $end
$var wire 1 ! clk $end
$var wire 4 q flags [3:0] $end
$var wire 7 r funct7e3 [6:0] $end
$var wire 1 - branch $end
$var wire 2 s aluOp [1:0] $end
$var parameter 3 t _and $end
$var parameter 3 u _or $end
$var parameter 3 v _xor $end
$var parameter 3 w add $end
$var parameter 3 x sub $end
$var reg 3 y op [2:0] $end
$upscope $end
$scope module IMM $end
$var wire 32 z instruction [31:0] $end
$var wire 32 { immediate [31:0] $end
$upscope $end
$scope module INST $end
$var wire 32 | Din [31:0] $end
$var wire 1 ! clk $end
$var wire 32 } out [31:0] $end
$var wire 1 ~ re $end
$var wire 1 !" we $end
$var wire 32 "" addr [31:0] $end
$var parameter 32 #" size $end
$var reg 8192 $" memory [8191:0] $end
$var integer 32 %" i [31:0] $end
$upscope $end
$scope module MEM $end
$var wire 32 &" addr [31:0] $end
$var wire 1 ! clk $end
$var wire 1 + we $end
$var wire 1 , re $end
$var wire 32 '" out [31:0] $end
$var wire 32 (" Din [31:0] $end
$var parameter 32 )" size $end
$var reg 8192 *" memory [8191:0] $end
$var integer 32 +" i [31:0] $end
$upscope $end
$scope module MUX_1 $end
$var wire 32 ," D1 [31:0] $end
$var wire 32 -" D2 [31:0] $end
$var wire 32 ." D3 [31:0] $end
$var wire 2 /" select [1:0] $end
$var wire 32 0" out [31:0] $end
$var wire 32 1" D0 [31:0] $end
$upscope $end
$scope module MUX_2 $end
$var wire 32 2" D0 [31:0] $end
$var wire 32 3" D1 [31:0] $end
$var wire 32 4" D2 [31:0] $end
$var wire 32 5" D3 [31:0] $end
$var wire 2 6" select [1:0] $end
$var wire 32 7" out [31:0] $end
$upscope $end
$scope module MUX_3 $end
$var wire 32 8" D0 [31:0] $end
$var wire 32 9" D1 [31:0] $end
$var wire 32 :" D2 [31:0] $end
$var wire 32 ;" D3 [31:0] $end
$var wire 2 <" select [1:0] $end
$var wire 32 =" out [31:0] $end
$upscope $end
$scope module MUX_4 $end
$var wire 32 >" D0 [31:0] $end
$var wire 32 ?" D2 [31:0] $end
$var wire 32 @" D3 [31:0] $end
$var wire 2 A" select [1:0] $end
$var wire 32 B" out [31:0] $end
$var wire 32 C" D1 [31:0] $end
$upscope $end
$scope module PC $end
$var wire 1 ! clk $end
$var wire 32 D" in [31:0] $end
$var wire 1 ( reset $end
$var wire 1 ) load $end
$var reg 32 E" out [31:0] $end
$upscope $end
$scope module REG $end
$var wire 32 F" Din [31:0] $end
$var wire 32 G" DoutA [31:0] $end
$var wire 32 H" DoutB [31:0] $end
$var wire 1 ! clk $end
$var wire 5 I" ra [4:0] $end
$var wire 5 J" rb [4:0] $end
$var wire 5 K" rw [4:0] $end
$var wire 1 ' we $end
$var reg 32 L" we_reg [31:0] $end
$var integer 32 M" j [31:0] $end
$scope begin genblk1[1] $end
$var parameter 2 N" i $end
$scope module xI $end
$var wire 1 ! clk $end
$var wire 32 O" in [31:0] $end
$var wire 1 P" load $end
$var wire 1 Q" reset $end
$var reg 32 R" out [31:0] $end
$upscope $end
$upscope $end
$scope begin genblk1[2] $end
$var parameter 3 S" i $end
$scope module xI $end
$var wire 1 ! clk $end
$var wire 32 T" in [31:0] $end
$var wire 1 U" load $end
$var wire 1 V" reset $end
$var reg 32 W" out [31:0] $end
$upscope $end
$upscope $end
$scope begin genblk1[3] $end
$var parameter 3 X" i $end
$scope module xI $end
$var wire 1 ! clk $end
$var wire 32 Y" in [31:0] $end
$var wire 1 Z" load $end
$var wire 1 [" reset $end
$var reg 32 \" out [31:0] $end
$upscope $end
$upscope $end
$scope begin genblk1[4] $end
$var parameter 4 ]" i $end
$scope module xI $end
$var wire 1 ! clk $end
$var wire 32 ^" in [31:0] $end
$var wire 1 _" load $end
$var wire 1 `" reset $end
$var reg 32 a" out [31:0] $end
$upscope $end
$upscope $end
$scope begin genblk1[5] $end
$var parameter 4 b" i $end
$scope module xI $end
$var wire 1 ! clk $end
$var wire 32 c" in [31:0] $end
$var wire 1 d" load $end
$var wire 1 e" reset $end
$var reg 32 f" out [31:0] $end
$upscope $end
$upscope $end
$scope begin genblk1[6] $end
$var parameter 4 g" i $end
$scope module xI $end
$var wire 1 ! clk $end
$var wire 32 h" in [31:0] $end
$var wire 1 i" load $end
$var wire 1 j" reset $end
$var reg 32 k" out [31:0] $end
$upscope $end
$upscope $end
$scope begin genblk1[7] $end
$var parameter 4 l" i $end
$scope module xI $end
$var wire 1 ! clk $end
$var wire 32 m" in [31:0] $end
$var wire 1 n" load $end
$var wire 1 o" reset $end
$var reg 32 p" out [31:0] $end
$upscope $end
$upscope $end
$scope begin genblk1[8] $end
$var parameter 5 q" i $end
$scope module xI $end
$var wire 1 ! clk $end
$var wire 32 r" in [31:0] $end
$var wire 1 s" load $end
$var wire 1 t" reset $end
$var reg 32 u" out [31:0] $end
$upscope $end
$upscope $end
$scope begin genblk1[9] $end
$var parameter 5 v" i $end
$scope module xI $end
$var wire 1 ! clk $end
$var wire 32 w" in [31:0] $end
$var wire 1 x" load $end
$var wire 1 y" reset $end
$var reg 32 z" out [31:0] $end
$upscope $end
$upscope $end
$scope begin genblk1[10] $end
$var parameter 5 {" i $end
$scope module xI $end
$var wire 1 ! clk $end
$var wire 32 |" in [31:0] $end
$var wire 1 }" load $end
$var wire 1 ~" reset $end
$var reg 32 !# out [31:0] $end
$upscope $end
$upscope $end
$scope begin genblk1[11] $end
$var parameter 5 "# i $end
$scope module xI $end
$var wire 1 ! clk $end
$var wire 32 ## in [31:0] $end
$var wire 1 $# load $end
$var wire 1 %# reset $end
$var reg 32 &# out [31:0] $end
$upscope $end
$upscope $end
$scope begin genblk1[12] $end
$var parameter 5 '# i $end
$scope module xI $end
$var wire 1 ! clk $end
$var wire 32 (# in [31:0] $end
$var wire 1 )# load $end
$var wire 1 *# reset $end
$var reg 32 +# out [31:0] $end
$upscope $end
$upscope $end
$scope begin genblk1[13] $end
$var parameter 5 ,# i $end
$scope module xI $end
$var wire 1 ! clk $end
$var wire 32 -# in [31:0] $end
$var wire 1 .# load $end
$var wire 1 /# reset $end
$var reg 32 0# out [31:0] $end
$upscope $end
$upscope $end
$scope begin genblk1[14] $end
$var parameter 5 1# i $end
$scope module xI $end
$var wire 1 ! clk $end
$var wire 32 2# in [31:0] $end
$var wire 1 3# load $end
$var wire 1 4# reset $end
$var reg 32 5# out [31:0] $end
$upscope $end
$upscope $end
$scope begin genblk1[15] $end
$var parameter 5 6# i $end
$scope module xI $end
$var wire 1 ! clk $end
$var wire 32 7# in [31:0] $end
$var wire 1 8# load $end
$var wire 1 9# reset $end
$var reg 32 :# out [31:0] $end
$upscope $end
$upscope $end
$scope begin genblk1[16] $end
$var parameter 6 ;# i $end
$scope module xI $end
$var wire 1 ! clk $end
$var wire 32 <# in [31:0] $end
$var wire 1 =# load $end
$var wire 1 ># reset $end
$var reg 32 ?# out [31:0] $end
$upscope $end
$upscope $end
$scope begin genblk1[17] $end
$var parameter 6 @# i $end
$scope module xI $end
$var wire 1 ! clk $end
$var wire 32 A# in [31:0] $end
$var wire 1 B# load $end
$var wire 1 C# reset $end
$var reg 32 D# out [31:0] $end
$upscope $end
$upscope $end
$scope begin genblk1[18] $end
$var parameter 6 E# i $end
$scope module xI $end
$var wire 1 ! clk $end
$var wire 32 F# in [31:0] $end
$var wire 1 G# load $end
$var wire 1 H# reset $end
$var reg 32 I# out [31:0] $end
$upscope $end
$upscope $end
$scope begin genblk1[19] $end
$var parameter 6 J# i $end
$scope module xI $end
$var wire 1 ! clk $end
$var wire 32 K# in [31:0] $end
$var wire 1 L# load $end
$var wire 1 M# reset $end
$var reg 32 N# out [31:0] $end
$upscope $end
$upscope $end
$scope begin genblk1[20] $end
$var parameter 6 O# i $end
$scope module xI $end
$var wire 1 ! clk $end
$var wire 32 P# in [31:0] $end
$var wire 1 Q# load $end
$var wire 1 R# reset $end
$var reg 32 S# out [31:0] $end
$upscope $end
$upscope $end
$scope begin genblk1[21] $end
$var parameter 6 T# i $end
$scope module xI $end
$var wire 1 ! clk $end
$var wire 32 U# in [31:0] $end
$var wire 1 V# load $end
$var wire 1 W# reset $end
$var reg 32 X# out [31:0] $end
$upscope $end
$upscope $end
$scope begin genblk1[22] $end
$var parameter 6 Y# i $end
$scope module xI $end
$var wire 1 ! clk $end
$var wire 32 Z# in [31:0] $end
$var wire 1 [# load $end
$var wire 1 \# reset $end
$var reg 32 ]# out [31:0] $end
$upscope $end
$upscope $end
$scope begin genblk1[23] $end
$var parameter 6 ^# i $end
$scope module xI $end
$var wire 1 ! clk $end
$var wire 32 _# in [31:0] $end
$var wire 1 `# load $end
$var wire 1 a# reset $end
$var reg 32 b# out [31:0] $end
$upscope $end
$upscope $end
$scope begin genblk1[24] $end
$var parameter 6 c# i $end
$scope module xI $end
$var wire 1 ! clk $end
$var wire 32 d# in [31:0] $end
$var wire 1 e# load $end
$var wire 1 f# reset $end
$var reg 32 g# out [31:0] $end
$upscope $end
$upscope $end
$scope begin genblk1[25] $end
$var parameter 6 h# i $end
$scope module xI $end
$var wire 1 ! clk $end
$var wire 32 i# in [31:0] $end
$var wire 1 j# load $end
$var wire 1 k# reset $end
$var reg 32 l# out [31:0] $end
$upscope $end
$upscope $end
$scope begin genblk1[26] $end
$var parameter 6 m# i $end
$scope module xI $end
$var wire 1 ! clk $end
$var wire 32 n# in [31:0] $end
$var wire 1 o# load $end
$var wire 1 p# reset $end
$var reg 32 q# out [31:0] $end
$upscope $end
$upscope $end
$scope begin genblk1[27] $end
$var parameter 6 r# i $end
$scope module xI $end
$var wire 1 ! clk $end
$var wire 32 s# in [31:0] $end
$var wire 1 t# load $end
$var wire 1 u# reset $end
$var reg 32 v# out [31:0] $end
$upscope $end
$upscope $end
$scope begin genblk1[28] $end
$var parameter 6 w# i $end
$scope module xI $end
$var wire 1 ! clk $end
$var wire 32 x# in [31:0] $end
$var wire 1 y# load $end
$var wire 1 z# reset $end
$var reg 32 {# out [31:0] $end
$upscope $end
$upscope $end
$scope begin genblk1[29] $end
$var parameter 6 |# i $end
$scope module xI $end
$var wire 1 ! clk $end
$var wire 32 }# in [31:0] $end
$var wire 1 ~# load $end
$var wire 1 !$ reset $end
$var reg 32 "$ out [31:0] $end
$upscope $end
$upscope $end
$scope begin genblk1[30] $end
$var parameter 6 #$ i $end
$scope module xI $end
$var wire 1 ! clk $end
$var wire 32 $$ in [31:0] $end
$var wire 1 %$ load $end
$var wire 1 &$ reset $end
$var reg 32 '$ out [31:0] $end
$upscope $end
$upscope $end
$scope begin genblk1[31] $end
$var parameter 6 ($ i $end
$scope module xI $end
$var wire 1 ! clk $end
$var wire 32 )$ in [31:0] $end
$var wire 1 *$ load $end
$var wire 1 +$ reset $end
$var reg 32 ,$ out [31:0] $end
$upscope $end
$upscope $end
$scope module x0 $end
$var wire 1 ! clk $end
$var wire 32 -$ in [31:0] $end
$var wire 1 .$ load $end
$var wire 1 /$ reset $end
$var reg 32 0$ out [31:0] $end
$upscope $end
$upscope $end
$upscope $end
$scope module UC $end
$var wire 1 - branch $end
$var wire 1 ! clk $end
$var wire 7 1$ opcode [6:0] $end
$var wire 1 " reset $end
$var parameter 5 2$ DONE $end
$var parameter 5 3$ EX $end
$var parameter 5 4$ ID $end
$var parameter 5 5$ IDLE $end
$var parameter 5 6$ IF $end
$var parameter 5 7$ MEM $end
$var parameter 5 8$ WB $end
$var reg 2 9$ alu_op [1:0] $end
$var reg 5 :$ currentState [4:0] $end
$var reg 1 , mem_re $end
$var reg 1 + mem_we $end
$var reg 5 ;$ nextState [4:0] $end
$var reg 1 ) pc_load $end
$var reg 1 ( pc_reset $end
$var reg 1 ' reg_file_write $end
$var reg 2 <$ select_mux_1 [1:0] $end
$var reg 2 =$ select_mux_2 [1:0] $end
$var reg 2 >$ select_mux_3 [1:0] $end
$var reg 2 ?$ select_mux_4 [1:0] $end
$upscope $end
$upscope $end
$upscope $end
$enddefinitions $end
$comment Show the parameter values. $end
$dumpall
b101 8$
b100 7$
b1 6$
b0 5$
b10 4$
b11 3$
b110 2$
b11111 ($
b11110 #$
b11101 |#
b11100 w#
b11011 r#
b11010 m#
b11001 h#
b11000 c#
b10111 ^#
b10110 Y#
b10101 T#
b10100 O#
b10011 J#
b10010 E#
b10001 @#
b10000 ;#
b1111 6#
b1110 1#
b1101 ,#
b1100 '#
b1011 "#
b1010 {"
b1001 v"
b1000 q"
b111 l"
b110 g"
b101 b"
b100 ]"
b11 X"
b10 S"
b1 N"
b100000000 )"
b100000000 #"
b1 x
b0 w
b100 v
b11 u
b10 t
$end
#0
$dumpvars
b0 ?$
b0 >$
b0 =$
b0 <$
b1 ;$
b0 :$
b0 9$
bx 1$
bx 0$
0/$
1.$
b0 -$
bx ,$
0+$
0*$
bx )$
bx '$
0&$
0%$
bx $$
bx "$
0!$
0~#
bx }#
bx {#
0z#
0y#
bx x#
bx v#
0u#
0t#
bx s#
bx q#
0p#
0o#
bx n#
bx l#
0k#
0j#
bx i#
bx g#
0f#
0e#
bx d#
bx b#
0a#
0`#
bx _#
bx ]#
0\#
0[#
bx Z#
bx X#
0W#
0V#
bx U#
bx S#
0R#
0Q#
bx P#
bx N#
0M#
0L#
bx K#
bx I#
0H#
0G#
bx F#
bx D#
0C#
0B#
bx A#
bx ?#
0>#
0=#
bx <#
bx :#
09#
08#
bx 7#
bx 5#
04#
03#
bx 2#
bx 0#
0/#
0.#
bx -#
bx +#
0*#
0)#
bx (#
bx &#
0%#
0$#
bx ##
bx !#
0~"
0}"
bx |"
bx z"
0y"
0x"
bx w"
bx u"
0t"
0s"
bx r"
bx p"
0o"
0n"
bx m"
bx k"
0j"
0i"
bx h"
bx f"
0e"
0d"
bx c"
bx a"
0`"
0_"
bx ^"
bx \"
0["
0Z"
bx Y"
bx W"
0V"
0U"
bx T"
bx R"
0Q"
0P"
bx O"
b100000 M"
b0 L"
bx K"
bx J"
bx I"
bx H"
bx G"
bx F"
bx E"
bx D"
bx C"
bx B"
b0 A"
bz @"
bz ?"
bx >"
bx ="
b0 <"
bz ;"
bz :"
bx 9"
bx 8"
bx 7"
b0 6"
bz 5"
bz 4"
bx 3"
bx 2"
bx 1"
bx 0"
b0 /"
bz ."
bz -"
bx ,"
b100000000 +"
b10001000000000000000000000000000000000000000000000000000000000000000000000000000000000000000000000000 *"
bx ("
bx '"
bx &"
b100000000 %"
b1100000010000110000011 $"
bx ""
z!"
1~
bx }
bz |
bx {
bx z
b0 y
b0 s
bx r
bx q
bx p
bx o
bx n
bx m
bx l
bx k
bx j
bx i
bx h
bx g
bx f
0e
bx d
bx c
bx b
bx a
bx `
bx _
bx ^
x]
bx \
x[
xZ
b0 Y
0X
bx W
bx V
bx U
bx T
bx S
bx R
bx Q
bx P
0O
0N
bx M
bx L
bx K
0J
0I
b1 H
bx G
bx F
bx E
bx D
bx C
b0 B
bx A
bx @
bx ?
bx >
bx =
bx <
bx ;
bx :
bx 9
bx 8
b0 7
bx 6
bx 5
bx 4
bx 3
b0 2
b0 1
b0 0
b0 /
b0 .
x-
0,
0+
bx *
0)
1(
0'
b0 &
b0 %
b0 $
b0 #
1"
0!
$end
#500
b11 F
b11 Q
b11 9"
b11 P
0-
b1 9
b1 ="
b1 D"
b11 >
b11 S
b11 {
b11 ,"
b100000 M"
b0 V
b0 a
b1 G
b1 L
b1 8"
b11 *
b11 6
b11 1$
b10 ?
b10 r
b11 C
b11 K"
b11 D
b11 J"
b0 4
b0 `
b0 c
b0 h
b0 j
b0 m
b0 p
b0 G"
b0 E
b0 I"
b1 K
b1100000010000110000011 =
b1100000010000110000011 z
b1100000010000110000011 }
b0 5
b0 M
b0 R
b0 ""
b0 E"
b0 0$
1!
#1000
0"
0!
#1500
0(
b10 ;$
b1 :$
1!
#2000
0!
#2500
b11 ;$
b10 :$
1!
#3000
0!
#3500
b11 8
b11 ("
b11 B"
b11 A
b11 ^
b11 &"
b11 3"
b11 >"
b11 W
b11 f
b11 T
b11 n
b11 U
b11 k
b11 d
0[
1Z
b101 @
b101 \
b101 q
0]
b11 ;
b11 _
b11 b
b11 g
b11 i
b11 l
b11 o
b11 0"
b1 .
b1 B
b1 s
b1 9$
b1 &
b1 2
b1 /"
b1 <$
b100 ;$
b11 :$
1!
#4000
0!
#4500
b10001 :
b10001 7"
b10001 F"
b10001 O"
b10001 T"
b10001 Y"
b10001 ^"
b10001 c"
b10001 h"
b10001 m"
b10001 r"
b10001 w"
b10001 |"
b10001 ##
b10001 (#
b10001 -#
b10001 2#
b10001 7#
b10001 <#
b10001 A#
b10001 F#
b10001 K#
b10001 P#
b10001 U#
b10001 Z#
b10001 _#
b10001 d#
b10001 i#
b10001 n#
b10001 s#
b10001 x#
b10001 }#
b10001 $$
b10001 )$
b10001 <
b10001 '"
b10001 2"
1,
b101 ;$
b100 :$
1!
#5000
0!
#5500
1Z"
b1000 L"
b100000 M"
1'
1)
b1 ;$
b101 :$
1!
#6000
0!
#6500
b0 &
b0 2
b0 /"
b0 <$
b0 .
b0 B
b0 s
b0 9$
0'
0,
0)
b10 ;$
0Z"
b0 L"
b1 :$
b0 :
b0 7"
b0 F"
b0 O"
b0 T"
b0 Y"
b0 ^"
b0 c"
b0 h"
b0 m"
b0 r"
b0 w"
b0 |"
b0 ##
b0 (#
b0 -#
b0 2#
b0 7#
b0 <#
b0 A#
b0 F#
b0 K#
b0 P#
b0 U#
b0 Z#
b0 _#
b0 d#
b0 i#
b0 n#
b0 s#
b0 x#
b0 }#
b0 $$
b0 )$
b0 <
b0 '"
b0 2"
b0 8
b0 ("
b0 B"
1-
b0 A
b0 ^
b0 &"
b0 3"
b0 >"
b0 W
b0 f
b0 T
b0 n
b0 U
b0 k
b0 d
0Z
b10 @
b10 \
b10 q
1]
b0 ;
b0 _
b0 b
b0 g
b0 i
b0 l
b0 o
b0 0"
b10 9
b10 ="
b10 D"
b0 >
b0 S
b0 {
b0 ,"
b100000 M"
b1 F
b1 Q
b1 9"
b10 G
b10 L
b10 8"
b0 *
b0 6
b0 1$
b0 ?
b0 r
b0 C
b0 K"
b0 D
b0 J"
b1 P
b10 K
b0 =
b0 z
b0 }
b1 5
b1 M
b1 R
b1 ""
b1 E"
b10001 \"
b0 3
b0 1"
b0 C"
b0 H"
1!
#7000
0!
#7500
b11 ;$
b10 :$
1!
#8000
0!
#8500
b100 ;$
b11 :$
1!
#9000
0!
#9500
b101 ;$
b100 :$
1!
#10000
0!
#10500
1)
b1 ;$
b101 :$
1!
#11000
0!
#11500
0)
b10 ;$
b1 :$
b11 9
b11 ="
b11 D"
b10 F
b10 Q
b10 9"
b11 G
b11 L
b11 8"
b10 P
b11 K
b10 5
b10 M
b10 R
b10 ""
b10 E"
1!
#12000
0!
#12500
b11 ;$
b10 :$
1!
#13000
0!
#13500
b100 ;$
b11 :$
1!
#14000
0!
#14500
b101 ;$
b100 :$
1!
#15000
0!
#15500
1)
b1 ;$
b101 :$
1!
#16000
0!
#16500
0)
b10 ;$
b1 :$
b100 9
b100 ="
b100 D"
b11 F
b11 Q
b11 9"
b100 G
b100 L
b100 8"
b11 P
b100 K
b11 5
b11 M
b11 R
b11 ""
b11 E"
1!
#17000
0!
#17500
b11 ;$
b10 :$
1!
#18000
0!
#18500
b100 ;$
b11 :$
1!
#19000
0!
#19500
b101 ;$
b100 :$
1!
#20000
0!
#20500
1)
b1 ;$
b101 :$
1!
#21000
0!
#21500
0)
b10 ;$
b1 :$
b101 9
b101 ="
b101 D"
b100 F
b100 Q
b100 9"
b101 G
b101 L
b101 8"
b100 P
b101 K
b100 5
b100 M
b100 R
b100 ""
b100 E"
1!
#22000
0!
#22500
b11 ;$
b10 :$
1!
#23000
0!
#23500
b100 ;$
b11 :$
1!
#24000
0!
#24500
b101 ;$
b100 :$
1!
#25000
0!
#25500
1)
b1 ;$
b101 :$
1!
#26000
0!
#26500
0)
b10 ;$
b1 :$
b110 9
b110 ="
b110 D"
b101 F
b101 Q
b101 9"
b110 G
b110 L
b110 8"
b101 P
b110 K
b101 5
b101 M
b101 R
b101 ""
b101 E"
1!
#27000
0!
#27500
b11 ;$
b10 :$
1!
#28000
0!
#28500
b100 ;$
b11 :$
1!
#29000
0!
#29500
b101 ;$
b100 :$
1!
#30000
0!
#30500
1)
b1 ;$
b101 :$
1!
#31000
0!
#31500
0)
b10 ;$
b1 :$
b111 9
b111 ="
b111 D"
b110 F
b110 Q
b110 9"
b111 G
b111 L
b111 8"
b110 P
b111 K
b110 5
b110 M
b110 R
b110 ""
b110 E"
1!
#32000
0!
#32500
b11 ;$
b10 :$
1!
#33000
0!
#33500
b100 ;$
b11 :$
1!
#34000
0!
#34500
b101 ;$
b100 :$
1!
#35000
0!
#35500
1)
b1 ;$
b101 :$
1!
#36000
0!
#36500
0)
b10 ;$
b1 :$
b1000 9
b1000 ="
b1000 D"
b111 F
b111 Q
b111 9"
b1000 G
b1000 L
b1000 8"
b111 P
b1000 K
b111 5
b111 M
b111 R
b111 ""
b111 E"
1!
#37000
0!
#37500
b11 ;$
b10 :$
1!
#38000
0!
#38500
b100 ;$
b11 :$
1!
#39000
0!
#39500
b101 ;$
b100 :$
1!
#40000
0!
#40500
1)
b1 ;$
b101 :$
1!
#41000
0!
#41500
0)
b10 ;$
b1 :$
b1001 9
b1001 ="
b1001 D"
b1000 F
b1000 Q
b1000 9"
b1001 G
b1001 L
b1001 8"
b1000 P
b1001 K
b1000 5
b1000 M
b1000 R
b1000 ""
b1000 E"
1!
#42000
0!
#42500
b11 ;$
b10 :$
1!
#43000
0!
#43500
b100 ;$
b11 :$
1!
#44000
0!
#44500
b101 ;$
b100 :$
1!
#45000
0!
#45500
1)
b1 ;$
b101 :$
1!
#46000
0!
#46500
0)
b10 ;$
b1 :$
b1010 9
b1010 ="
b1010 D"
b1001 F
b1001 Q
b1001 9"
b1010 G
b1010 L
b1010 8"
b1001 P
b1010 K
b1001 5
b1001 M
b1001 R
b1001 ""
b1001 E"
1!
#47000
0!
#47500
b11 ;$
b10 :$
1!
#48000
0!
#48500
b100 ;$
b11 :$
1!
#49000
0!
#49500
b101 ;$
b100 :$
1!
#50000
0!
#50500
1)
b1 ;$
b101 :$
1!
#51000
0!
#51500
0)
b10 ;$
b1 :$
b1011 9
b1011 ="
b1011 D"
b1010 F
b1010 Q
b1010 9"
b1011 G
b1011 L
b1011 8"
b1010 P
b1011 K
b1010 5
b1010 M
b1010 R
b1010 ""
b1010 E"
1!
#52000
0!
#52500
b11 ;$
b10 :$
1!
#53000
0!
#53500
b100 ;$
b11 :$
1!
#54000
0!
#54500
b101 ;$
b100 :$
1!
#55000
0!
#55500
1)
b1 ;$
b101 :$
1!
#56000
0!
#56500
0)
b10 ;$
b1 :$
b1100 9
b1100 ="
b1100 D"
b1011 F
b1011 Q
b1011 9"
b1100 G
b1100 L
b1100 8"
b1011 P
b1100 K
b1011 5
b1011 M
b1011 R
b1011 ""
b1011 E"
1!
#57000
0!
#57500
b11 ;$
b10 :$
1!
#58000
0!
#58500
b100 ;$
b11 :$
1!
#59000
0!
#59500
b101 ;$
b100 :$
1!
#60000
0!
#60500
1)
b1 ;$
b101 :$
1!
#61000
0!
#61500
0)
b10 ;$
b1 :$
b1101 9
b1101 ="
b1101 D"
b1100 F
b1100 Q
b1100 9"
b1101 G
b1101 L
b1101 8"
b1100 P
b1101 K
b1100 5
b1100 M
b1100 R
b1100 ""
b1100 E"
1!
#62000
0!
#62500
b11 ;$
b10 :$
1!
#63000
0!
#63500
b100 ;$
b11 :$
1!
#64000
0!
#64500
b101 ;$
b100 :$
1!
#65000
0!
#65500
1)
b1 ;$
b101 :$
1!
#66000
0!
#66500
0)
b10 ;$
b1 :$
b1110 9
b1110 ="
b1110 D"
b1101 F
b1101 Q
b1101 9"
b1110 G
b1110 L
b1110 8"
b1101 P
b1110 K
b1101 5
b1101 M
b1101 R
b1101 ""
b1101 E"
1!
#67000
0!
#67500
b11 ;$
b10 :$
1!
#68000
0!
#68500
b100 ;$
b11 :$
1!
#69000
0!
#69500
b101 ;$
b100 :$
1!
#70000
0!
#70500
1)
b1 ;$
b101 :$
1!
#71000
0!
#71500
0)
b10 ;$
b1 :$
b1111 9
b1111 ="
b1111 D"
b1110 F
b1110 Q
b1110 9"
b1111 G
b1111 L
b1111 8"
b1110 P
b1111 K
b1110 5
b1110 M
b1110 R
b1110 ""
b1110 E"
1!
#72000
0!
#72500
b11 ;$
b10 :$
1!
#73000
0!
#73500
b100 ;$
b11 :$
1!
#74000
0!
#74500
b101 ;$
b100 :$
1!
#75000
0!
#75500
1)
b1 ;$
b101 :$
1!
#76000
0!
#76500
0)
b10 ;$
b1 :$
b10000 9
b10000 ="
b10000 D"
b1111 F
b1111 Q
b1111 9"
b10000 G
b10000 L
b10000 8"
b1111 P
b10000 K
b1111 5
b1111 M
b1111 R
b1111 ""
b1111 E"
1!
#77000
0!
#77500
b11 ;$
b10 :$
1!
#78000
0!
#78500
b100 ;$
b11 :$
1!
#79000
0!
#79500
b101 ;$
b100 :$
1!
#80000
0!
#80500
1)
b1 ;$
b101 :$
1!
#81000
0!
#81500
0)
b10 ;$
b1 :$
b10001 9
b10001 ="
b10001 D"
b10000 F
b10000 Q
b10000 9"
b10001 G
b10001 L
b10001 8"
b10000 P
b10001 K
b10000 5
b10000 M
b10000 R
b10000 ""
b10000 E"
1!
#82000
0!
#82500
b11 ;$
b10 :$
1!
#83000
0!
#83500
b100 ;$
b11 :$
1!
#84000
0!
#84500
b101 ;$
b100 :$
1!
#85000
0!
#85500
1)
b1 ;$
b101 :$
1!
#86000
0!
#86500
0)
b10 ;$
b1 :$
b10010 9
b10010 ="
b10010 D"
b10001 F
b10001 Q
b10001 9"
b10010 G
b10010 L
b10010 8"
b10001 P
b10010 K
b10001 5
b10001 M
b10001 R
b10001 ""
b10001 E"
1!
#87000
0!
#87500
b11 ;$
b10 :$
1!
#88000
0!
